,PKG,Challenge
0,aopalliance,0.883
1,apache.activemq,0.8140838805801724
2,apache.catalina,0.742387054220555
3,apache.commons,0.7148552571125351
6,apache.http,0.6910192710321845
7,apache.logging,0.6716827317391921
12,aspectj,0.6561769877067499
17,caucho,0.6433956126639806
19,commonj.timers,0.632887525476611
20,commonj.work,0.6242046885275514
21,dom4j,0.617266402559435
22,eclipse.jetty,0.6100967162903547
25,fasterxml,0.605521374725223
28,github.benmanes,0.6015905133573743
29,glassfish.tyrus,0.5981536232213106
30,google.gson,0.595599349103221
31,google.protobuf,0.593312988088124
33,gradle.api,0.5914971820587055
34,groovy,0.5899996430252807
36,hibernate,0.5888208774827378
40,java.awt,0.5876919929968254
41,java.beans,0.5869003993214174
42,java.io,0.5862170595637318
43,java.lang,0.5856677883430006
44,java.math,0.5852179752815746
45,java.net,0.5848139493248072
46,java.nio,0.5844978309448581
48,java.security,0.5842251627479846
49,java.sql,0.5840170469337944
50,java.text,0.5838416040215731
51,java.time,0.5836924138237685
52,java.util,0.5835728415451559
53,javax.activation,0.5834607239975398
54,javax.annotation,0.5833838741637362
56,javax.ejb,0.5833152174275554
57,javax.el,0.583261763858207
58,javax.enterprise,0.58321720611236
59,javax.faces,0.583180069290039
60,javax.imageio,0.5831486738807239
61,javax.inject,0.5831232913322838
62,javax.jms,0.5830992394591836
66,javax.mail,0.5830816438778371
67,javax.management,0.5830664684878547
68,javax.money,0.5830543180351643
69,javax.naming,0.5830427931336855
70,javax.net,0.5830349645064205
71,javax.persistence,0.5830283177406503
72,javax.resource,0.5830230926723826
75,javax.servlet,0.5830192319764983
76,javax.sql,0.5830155612390787
77,javax.tools,0.5830127475522556
78,javax.transaction,0.58301047791477
79,javax.validation,0.5830085846700194
80,javax.websocket,0.5830067996589423
81,javax.xml,0.5830054525086552
84,joda,0.5830044317844828
85,joptsimple,0.5830036768859987
86,junit,0.583002926525192
88,kotlin.reflect,0.5830023084582692
92,mockito,0.5830018730067752
95,okhttp3,0.5830014678644773
98,quartz,0.583000958205755
99,reactivestreams,0.5830007179182155
100,reactor,0.5830005614433809
101,rometools,0.5830003545713853
104,slf4j,0.5830002710559377
109,thoughtworks.xsteams,0.5830002073893842
110,w3c,0.5830001162947138
112,xml,0.583
